%YAML 1.1
%TAG !u! tag:unity3d.com,2011:
--- !u!114 &11400000
MonoBehaviour:
  m_ObjectHideFlags: 0
  m_CorrespondingSourceObject: {fileID: 0}
  m_PrefabInstance: {fileID: 0}
  m_PrefabAsset: {fileID: 0}
  m_GameObject: {fileID: 0}
  m_Enabled: 1
  m_EditorHideFlags: 0
  m_Script: {fileID: 11500000, guid: 24de564b2c1e0a143b03cd0f2b0ef7ce, type: 3}
  m_Name: ClipSize
  m_EditorClassIdentifier: 
  <Label>k__BackingField: Clip Size
  <NumericLabel>k__BackingField: 
  <NumericFunction>k__BackingField:
    serializedVersion: 2
    m_Curve:
    - serializedVersion: 3
      time: 0
      value: 0
      inSlope: 0
      outSlope: 0
      tangentMode: 0
      weightedMode: 3
      inWeight: 0
      outWeight: 0
    - serializedVersion: 3
      time: 100
      value: 100
      inSlope: 0
      outSlope: 0
      tangentMode: 0
      weightedMode: 3
      inWeight: 0
      outWeight: 0
    m_PreInfinity: 2
    m_PostInfinity: 2
    m_RotationOrder: 4
  <LowInputMode>k__BackingField: 0
  <LowInputValue>k__BackingField: 0
  <HighInputMode>k__BackingField: 1
  <HighInputValue>k__BackingField: 100
