%YAML 1.1
%TAG !u! tag:unity3d.com,2011:
--- !u!114 &11400000
MonoBehaviour:
  m_ObjectHideFlags: 0
  m_CorrespondingSourceObject: {fileID: 0}
  m_PrefabInstance: {fileID: 0}
  m_PrefabAsset: {fileID: 0}
  m_GameObject: {fileID: 0}
  m_Enabled: 1
  m_EditorHideFlags: 0
  m_Script: {fileID: 11500000, guid: c4e6a1e0ec972db4285f34a94c975519, type: 3}
  m_Name: SnubnoseMuzzle
  m_EditorClassIdentifier: 
  mainLabel: Snubnose
  description: 
  icon: {fileID: 0}
  iconBackground: {fileID: 0}
  iconColor: {r: 1, g: 0.5993991, b: 0, a: 1}
  iconBackgroundColor: {r: 0, g: 0, b: 0, a: 0}
  requiredSlot: 17
  statTraits:
  - traitBlueprint: {fileID: 11400000, guid: 770d974ff8a07f14baff0ccc042a35b3, type: 2}
    probability: 0.543
    effectRangeMin: 0
    effectRangeMax: 0.817
  - traitBlueprint: {fileID: 11400000, guid: 4e028fac4084c0949bc497ebffc48fd9, type: 2}
    probability: 0.383
    effectRangeMin: 0
    effectRangeMax: 0.603
  - traitBlueprint: {fileID: 11400000, guid: f43d481e126905a4aa376ee49213229f, type: 2}
    probability: 0.61
    effectRangeMin: 0
    effectRangeMax: 1
  - traitBlueprint: {fileID: 11400000, guid: 69d7a17e0c1809d4bbb19c0ebf1014b6, type: 2}
    probability: 0.615
    effectRangeMin: 0.383
    effectRangeMax: 1
  behaviorTraits: []
  slots: []
