%YAML 1.1
%TAG !u! tag:unity3d.com,2011:
--- !u!114 &11400000
MonoBehaviour:
  m_ObjectHideFlags: 0
  m_CorrespondingSourceObject: {fileID: 0}
  m_PrefabInstance: {fileID: 0}
  m_PrefabAsset: {fileID: 0}
  m_GameObject: {fileID: 0}
  m_Enabled: 1
  m_EditorHideFlags: 0
  m_Script: {fileID: 11500000, guid: c4e6a1e0ec972db4285f34a94c975519, type: 3}
  m_Name: BoltActionChamber
  m_EditorClassIdentifier: 
  mainLabel: Bolt-Action Chamber
  description: 
  icon: {fileID: 8291391165206617728, guid: e298745bfd641cc4c8d4cf6de3578de3, type: 3}
  iconBackground: {fileID: 0}
  iconColor: {r: 0.079197526, g: 1, b: 0, a: 1}
  iconBackgroundColor: {r: 0, g: 0, b: 0, a: 0}
  requiredSlot: 9
  selfStaticRequirements:
    <StatRequirements>k__BackingField: []
    <AttributeRequirements>k__BackingField: []
  selfAttributes:
  - type: 0
    precedence: 2.5
    enumValue: 0
    objReference: {fileID: 0}
  statTraits:
  - traitBlueprint: {fileID: 11400000, guid: 1901dc1a43d43ea419f144653005e425, type: 2}
    probability: 0.846
    effectRangeMin: 0
    effectRangeMax: 0.54
  behaviorTraits: []
  slots:
  - slotType: 11
    probabilty: 0.903
  - slotType: 10
    probabilty: 0.507
  - slotType: 18
    probabilty: 0.174
