%YAML 1.1
%TAG !u! tag:unity3d.com,2011:
--- !u!114 &11400000
MonoBehaviour:
  m_ObjectHideFlags: 0
  m_CorrespondingSourceObject: {fileID: 0}
  m_PrefabInstance: {fileID: 0}
  m_PrefabAsset: {fileID: 0}
  m_GameObject: {fileID: 0}
  m_Enabled: 1
  m_EditorHideFlags: 0
  m_Script: {fileID: 11500000, guid: c4e6a1e0ec972db4285f34a94c975519, type: 3}
  m_Name: ProjectileTagger
  m_EditorClassIdentifier: 
  mainLabel: Projectile Tagger
  description: 
  icon: {fileID: 0}
  iconBackground: {fileID: 0}
  iconColor: {r: 1, g: 1, b: 1, a: 1}
  iconBackgroundColor: {r: 0, g: 0, b: 0, a: 0}
  requiredSlot: 22
  selfStaticRequirements:
    <StatRequirements>k__BackingField:
    - stat: {fileID: 11400000, guid: 621037b78b19b8c4097389414c34994f, type: 2}
      value: 2
      compareMode: 1
    <AttributeRequirements>k__BackingField: []
  selfAttributes:
  - type: 0
    precedence: 0.25
    enumValue: 1
    objReference: {fileID: 0}
  statTraits:
  - traitBlueprint: {fileID: 11400000, guid: 1901dc1a43d43ea419f144653005e425, type: 2}
    probability: 0.721
    effectRangeMin: 0
    effectRangeMax: 0.466
  - traitBlueprint: {fileID: 11400000, guid: f43d481e126905a4aa376ee49213229f, type: 2}
    probability: 0.492
    effectRangeMin: 0
    effectRangeMax: 0.619
  - traitBlueprint: {fileID: 11400000, guid: a9df85794c0589842961595d23217c0d, type: 2}
    probability: 0.243
    effectRangeMin: 0
    effectRangeMax: 1
  behaviorTraits:
  - traitBlueprint: {fileID: 11400000, guid: c61f7dca1f48f5543b49f7385dcb26c3, type: 2}
    probability: 1
    effectRangeMin: 0.283
    effectRangeMax: 1
  slots: []
