%YAML 1.1
%TAG !u! tag:unity3d.com,2011:
--- !u!114 &11400000
MonoBehaviour:
  m_ObjectHideFlags: 0
  m_CorrespondingSourceObject: {fileID: 0}
  m_PrefabInstance: {fileID: 0}
  m_PrefabAsset: {fileID: 0}
  m_GameObject: {fileID: 0}
  m_Enabled: 1
  m_EditorHideFlags: 0
  m_Script: {fileID: 11500000, guid: 144d23a09cfc17246a3bb4c686e169b7, type: 3}
  m_Name: ExtraRounds
  m_EditorClassIdentifier: 
  <Requirements>k__BackingField:
    <StatRequirements>k__BackingField: []
    <SlotsToFill>k__BackingField: 
  statRanges:
  - stat: {fileID: 11400000, guid: ce4f29585353e9b4393d718a079e7072, type: 2}
    addModifier:
      serializedVersion: 2
      m_Curve:
      - serializedVersion: 3
        time: 0
        value: 1
        inSlope: 5
        outSlope: 5
        tangentMode: 34
        weightedMode: 0
        inWeight: 0
        outWeight: 0.33333334
      - serializedVersion: 3
        time: 1
        value: 6
        inSlope: 5
        outSlope: 5
        tangentMode: 34
        weightedMode: 0
        inWeight: 0.33333334
        outWeight: 0
      m_PreInfinity: 2
      m_PostInfinity: 2
      m_RotationOrder: 0
    multModifier:
      serializedVersion: 2
      m_Curve: []
      m_PreInfinity: 0
      m_PostInfinity: 0
      m_RotationOrder: 0
