{
  "version": "0.3.0",
  "scope": "tree",
  "id": "fa8e03b6-7998-4272-8b73-d59d6d18c3f1",
  "title": "Flying Mob AI",
  "description": "",
  "root": "93cf573f-f7d8-4cc7-8a56-c01ae24bd482",
  "properties": {},
  "nodes": {
    "ea0858d7-974d-4c60-8ad2-a80bb15233cc": {
      "id": "ea0858d7-974d-4c60-8ad2-a80bb15233cc",
      "name": "Sequence",
      "title": "Sequence",
      "description": "",
      "properties": {},
      "display": {
        "x": -144,
        "y": -108
      },
      "children": [
        "18671756-a2f1-43c6-b562-96c4d1b1289d",
        "c0ff7de3-1744-468a-b5b5-0e4b31c2c52b"
      ]
    },
    "93cf573f-f7d8-4cc7-8a56-c01ae24bd482": {
      "id": "93cf573f-f7d8-4cc7-8a56-c01ae24bd482",
      "name": "Priority",
      "title": "Priority",
      "description": "",
      "properties": {},
      "display": {
        "x": -276,
        "y": -108
      },
      "children": [
        "ea0858d7-974d-4c60-8ad2-a80bb15233cc",
        "950b87b1-e087-4087-b98a-b692ad295e96",
        "b6ec59aa-d71b-438e-b186-2e7fe3bfd291"
      ]
    },
    "950b87b1-e087-4087-b98a-b692ad295e96": {
      "id": "950b87b1-e087-4087-b98a-b692ad295e96",
      "name": "Sequence",
      "title": "Sequence",
      "description": "",
      "properties": {},
      "display": {
        "x": -144,
        "y": 48
      },
      "children": [
        "5dc2336e-b58e-430e-8b9b-35ef885f0fbe",
        "d5c6701a-7ae1-4729-be65-6081cb729099",
        "be6b0f56-47f5-44bc-addc-667270191ff0"
      ]
    },
    "18671756-a2f1-43c6-b562-96c4d1b1289d": {
      "id": "18671756-a2f1-43c6-b562-96c4d1b1289d",
      "name": "Runner",
      "title": "Can Attack Target?",
      "description": "",
      "properties": {},
      "display": {
        "x": 48,
        "y": -108
      }
    },
    "c0ff7de3-1744-468a-b5b5-0e4b31c2c52b": {
      "id": "c0ff7de3-1744-468a-b5b5-0e4b31c2c52b",
      "name": "Runner",
      "title": "Attack Target",
      "description": "",
      "properties": {},
      "display": {
        "x": 48,
        "y": -48
      }
    },
    "5dc2336e-b58e-430e-8b9b-35ef885f0fbe": {
      "id": "5dc2336e-b58e-430e-8b9b-35ef885f0fbe",
      "name": "Runner",
      "title": "Find Target",
      "description": "",
      "properties": {},
      "display": {
        "x": 48,
        "y": 48
      }
    },
    "be6b0f56-47f5-44bc-addc-667270191ff0": {
      "id": "be6b0f56-47f5-44bc-addc-667270191ff0",
      "name": "Runner",
      "title": "Go To Target",
      "description": "",
      "properties": {},
      "display": {
        "x": 48,
        "y": 168
      }
    },
    "b6ec59aa-d71b-438e-b186-2e7fe3bfd291": {
      "id": "b6ec59aa-d71b-438e-b186-2e7fe3bfd291",
      "name": "Runner",
      "title": "Explore",
      "description": "",
      "properties": {},
      "display": {
        "x": -84,
        "y": 264
      }
    },
    "d5c6701a-7ae1-4729-be65-6081cb729099": {
      "id": "d5c6701a-7ae1-4729-be65-6081cb729099",
      "name": "Runner",
      "title": "Can See Target?",
      "description": "",
      "properties": {},
      "display": {
        "x": 48,
        "y": 108
      }
    }
  },
  "display": {
    "camera_x": 960,
    "camera_y": 468.5,
    "camera_z": 1,
    "x": -360,
    "y": -108
  },
  "custom_nodes": []
}