%YAML 1.1
%TAG !u! tag:unity3d.com,2011:
--- !u!114 &11400000
MonoBehaviour:
  m_ObjectHideFlags: 0
  m_CorrespondingSourceObject: {fileID: 0}
  m_PrefabInstance: {fileID: 0}
  m_PrefabAsset: {fileID: 0}
  m_GameObject: {fileID: 0}
  m_Enabled: 1
  m_EditorHideFlags: 0
  m_Script: {fileID: 11500000, guid: 79706323dd56a3a4c822cc592dfcf2cb, type: 3}
  m_Name: RechargeOnShoot
  m_EditorClassIdentifier: 
  <Label>k__BackingField: Recharge on Shoot
  <Description>k__BackingField: Gain # energy per $ shot
  <RequirementStatic>k__BackingField:
    <StatRequirements>k__BackingField: []
    <AttributeRequirements>k__BackingField: []
  <RequirementDynamic>k__BackingField:
    useRequirements: 0
    <RoundsCompareMode>k__BackingField: 1
    <RequiredRounds>k__BackingField: 0
    <EnergyCompareMode>k__BackingField: 1
    <RequiredEnergy>k__BackingField: 0
  <WeaponAttributes>k__BackingField: []
  activationCondition:
    condition: 0
    invertCondition: 0
    trigger: 0
  boolValue:
    serializedVersion: 2
    m_Curve: []
    m_PreInfinity: 2
    m_PostInfinity: 2
    m_RotationOrder: 4
  intValue:
    serializedVersion: 2
    m_Curve:
    - serializedVersion: 3
      time: 0
      value: 2
      inSlope: -1
      outSlope: -1
      tangentMode: 34
      weightedMode: 0
      inWeight: 0
      outWeight: 0.33333334
    - serializedVersion: 3
      time: 1
      value: 1
      inSlope: -1
      outSlope: -1
      tangentMode: 34
      weightedMode: 0
      inWeight: 0.33333334
      outWeight: 0
    m_PreInfinity: 2
    m_PostInfinity: 2
    m_RotationOrder: 4
  floatValue:
    serializedVersion: 2
    m_Curve:
    - serializedVersion: 3
      time: 0
      value: 1
      inSlope: 1.0045371
      outSlope: 1.0045371
      tangentMode: 34
      weightedMode: 0
      inWeight: 0
      outWeight: 0.33333334
    - serializedVersion: 3
      time: 0.9954834
      value: 2
      inSlope: 1.0045371
      outSlope: 1.0045371
      tangentMode: 34
      weightedMode: 0
      inWeight: 0.33333334
      outWeight: 0
    m_PreInfinity: 2
    m_PostInfinity: 2
    m_RotationOrder: 4
  <OnUpdate>k__BackingField:
    m_PersistentCalls:
      m_Calls: []
  <OnFireTriggerStart>k__BackingField:
    m_PersistentCalls:
      m_Calls: []
  <OnFireTriggerEnd>k__BackingField:
    m_PersistentCalls:
      m_Calls: []
  <OnReloadStart>k__BackingField:
    m_PersistentCalls:
      m_Calls: []
  <OnProjectilesFired>k__BackingField:
    m_PersistentCalls:
      m_Calls:
      - m_Target: {fileID: 11400000}
        m_TargetAssemblyTypeName: RTDW.Weapons.BehaviorTraitBlueprint, Assembly-CSharp
        m_MethodName: Behavior_RechargeOnFire_Fire
        m_Mode: 0
        m_Arguments:
          m_ObjectArgument: {fileID: 0}
          m_ObjectArgumentAssemblyTypeName: UnityEngine.Object, UnityEngine
          m_IntArgument: 0
          m_FloatArgument: 0
          m_StringArgument: 
          m_BoolArgument: 0
        m_CallState: 2
